date/time         : 2017-09-25, 12:40:56, 618ms
computer name     : PHPSERVER
wts client name   : APATECHDT-0017
user name         : Phpserver
registered owner  : Microsoft / Microsoft
operating system  : Windows 2008 R2 x64 Service Pack 1 build 7601
system language   : English
system up time    : 11 days 1 hour
program up time   : 3 seconds
processor         : Intel(R) Xeon(R) CPU E5-2620 v4 @ 2.10GHz
physical memory   : 5369/8192 MB (free/total)
free disk space   : (C:) 27.20 GB
display mode      : 1920x1080, 16 bit
process id        : $1768
allocated memory  : 11.39 MB
command line      : "C:\xampp\sendmail\sendmail.exe" -t
executable        : sendmail.exe
exec. date/time   : 2012-04-16 23:00
compiled with     : Delphi 2006/07
madExcept version : 3.0l
callstack crc     : $297aecaf, $1d2d6a96, $1d2d6a96
exception number  : 1
exception class   : EIdConnClosedGracefully
exception message : Connection Closed Gracefully.

main thread ($13b0):
0043e503 +002f sendmail.exe IdIOHandler      1929  +23 TIdIOHandler.RaiseConnClosedGracefully
00440d55 +0051 sendmail.exe IdIOHandlerStack  396  +17 TIdIOHandlerStack.CheckForDisconnect
0043eee7 +002b sendmail.exe IdIOHandler      2384   +2 TIdIOHandler.WriteDirect
0043ebc6 +0032 sendmail.exe IdIOHandler      2264   +4 TIdIOHandler.Write
0043cd64 +0070 sendmail.exe IdIOHandler       962   +6 TIdIOHandler.Write
0043df7c +0040 sendmail.exe IdIOHandler      1646   +2 TIdIOHandler.WriteLn
0043ff76 +004a sendmail.exe IdTCPConnection   584   +3 TIdTCPConnection.SendCmd
0044020e +0056 sendmail.exe IdTCPConnection   723   +4 TIdTCPConnection.SendCmd
0045ac17 +0017 sendmail.exe IdSMTP            394   +2 TIdSMTP.DisconnectNotifyPeer
0043fe12 +002a sendmail.exe IdTCPConnection   519   +5 TIdTCPConnection.Disconnect
0045aea0 +0018 sendmail.exe IdSMTP            509   +2 TIdSMTP.Disconnect
00440598 +0004 sendmail.exe IdTCPConnection   857   +0 TIdTCPConnection.Disconnect
00459ff5 +00a9 sendmail.exe IdSMTPBase        407  +24 TIdSMTPBase.StartTLS
0045a8bd +0039 sendmail.exe IdSMTP            312  +11 TIdSMTP.Authenticate
004b5f81 +10cd sendmail.exe sendmail          822 +340 initialization
76d43368 +0010 kernel32.dll                            BaseThreadInitThunk

thread $1248:
773f0166 +0e ntdll.dll     NtWaitForMultipleObjects
76d43368 +10 kernel32.dll  BaseThreadInitThunk

thread $6c4:
773f1f4f +0b ntdll.dll     NtWaitForWorkViaWorkerFactory
76d43368 +10 kernel32.dll  BaseThreadInitThunk

stack dump:
0018eb24  08 e5 43 00 de fa ed 0e - 01 00 00 00 07 00 00 00  ..C.............
0018eb34  38 eb 18 00 08 e5 43 00 - c0 51 f4 01 01 cb f4 01  8.....C..Q......
0018eb44  20 9b ec 01 94 34 46 00 - 64 eb 18 00 54 eb 18 00  .....4F.d...T...
0018eb54  7c eb 18 00 c8 4b 40 00 - 64 eb 18 00 00 00 00 00  |....K@.d.......
0018eb64  b4 eb 18 00 5a 0d 44 00 - 01 00 00 00 20 9b ec 01  ....Z.D.........
0018eb74  b0 cb f4 01 ea ee 43 00 - d8 eb 18 00 c8 4b 40 00  ......C......K@.
0018eb84  b4 eb 18 00 20 ab f5 01 - b0 cb f4 01 20 9b ec 01  ................
0018eb94  bc eb 18 00 01 00 00 00 - e1 38 42 00 d8 eb 18 00  .........8B.....
0018eba4  24 39 42 00 2c 39 42 00 - 06 00 00 00 00 00 00 00  $9B.,9B.........
0018ebb4  cc eb 18 00 cb eb 43 00 - 00 00 00 00 00 ab f5 01  ......C.........
0018ebc4  94 34 46 00 ff ff ff ff - f8 eb 18 00 6a cd 43 00  .4F.........j.C.
0018ebd4  00 00 00 00 04 ec 18 00 - c8 4b 40 00 f8 eb 18 00  .........K@.....
0018ebe4  28 ac 45 00 20 9b ec 01 - 94 34 46 00 00 00 00 00  (.E......4F.....
0018ebf4  30 cd f4 01 24 ec 18 00 - 82 df 43 00 00 00 00 00  0...$.....C.....
0018ec04  30 ec 18 00 c8 4b 40 00 - 24 ec 18 00 94 34 46 00  0....K@.$....4F.
0018ec14  00 00 00 00 c0 99 ec 01 - 00 00 00 00 00 00 00 00  ................
0018ec24  50 ec 18 00 7c ff 43 00 - 00 00 00 00 60 ec 18 00  P...|.C.....`...
0018ec34  c8 4b 40 00 50 ec 18 00 - 00 00 00 00 dd 00 f3 01  .K@.P...........
0018ec44  34 a5 45 00 78 ec 18 00 - 00 00 00 00 80 ec 18 00  4.E.x...........
0018ec54  14 02 44 00 00 00 00 00 - 00 00 00 00 94 ec 18 00  ..D.............

disassembling:
[...]
0043e4ef        call    -$36f9c ($407558)      ; System.LoadResString
0043e4f4        mov     ecx, [ebp-4]
0043e4f7        mov     dl, 1
0043e4f9        mov     eax, [$41f6b4]
0043e4fe        call    -$1eb07 ($41f9fc)      ; IdException.EIdException.Create
0043e503      > call    -$3981c ($404cec)      ; System.@RaiseExcept
0043e508 1930   xor     eax, eax
0043e50a        pop     edx
0043e50b        pop     ecx
0043e50c        pop     ecx
0043e50d        mov     fs:[eax], edx
[...]